   0    1    1    1    1    0    2    2    2    2    0    3    0    3    3    0    4    4    4    0    0    0    0    0    0    5    5    5    0    6    0    0    7    0    8    8    0    9    0    0    0   10   10    0   11    0   12   12   12   12   12    0    0   13   13    0    0   14    0   15   15   15    0    0   16    0   17   17    0   17    0    0   18    0    0    0    0   19   19   19    0   20   20    0   20    0   21    0   21    0   22    0   23   23   23    0   24    0    0   25    0   26   26    0    0   27    0   28    0   29    0    0    0   30    0   31   31   31    0   32    0    0   33   33    0   34    0    0
  35    0    1    1    0   36    0    2    0    0    3    3    3    3    3    3    0    4    0   37   37   37   37   37   37    0    0    5    5    0    0    0    0    0    8    0    0    0    0    0    0    0    0    0   11    0   12    0   12   12    0   38    0    0   13   13    0    0   15   15    0    0   39    0    0    0   17   17   17   17    0   40    0   17    0   17   17    0    0    0   20   20   20   20   20    0   21   21   21    0    0   41    0    0    0   42    0   43   43    0    0   26    0   44   44    0   45    0    0   29   29    0   30   30    0    0    0    0    0   32   32    0    0    0   46    0   47   47
  35   35    0    1    1    0   48    0    0   49    0    0    0    0    0    3    0    0    0    0   37    0   37   37    0   37   37    0    5    5    5    0   50    0    8    8    0    0    0   51   51    0    0   52    0   53    0   53    0    0    0   38    0   13   13   13   13    0   15   15   15    0   39    0   54   54    0   17    0    0    0   40    0   17    0   17    0    0    0    0   20    0    0    0    0   21   21    0    0   55    0   41   41    0    0   42    0    0    0   56    0   26   26    0   44    0   45    0   57    0    0   58    0    0   59   59    0    0   32   32   32    0   60    0    0   61    0   47
  35   35    0    1    0    0    0    0    0   49   49    0   62    0    0    3    3    0   63    0    0   37   37   37   37   37    0    0    5    0    5    0    0   64    0    8    0   65   65    0   51    0    0    0   53   53   53   53   53    0    0    0   13   13    0   13    0   66    0    0    0   39   39   39    0    0   17   17   17   17    0    0    0   17    0   17   17    0    0    0    0    0    0    0    0   21   21    0   55   55    0   41    0    0    0    0   67    0    0   56   56    0    0    0   44    0    0    0    0    0   68    0    0    0   59    0    0    0   32    0    0   69    0    0   61   61    0   47
   0   35    0    1    1    1    0   62   62    0    0    0   62   62   62    0    0   70    0   71    0    0    0   37   37    0    0    0    5    5    5    5    0    0    0    0    0    0    0   72    0   73   73    0   53    0   53    0   53    0    0    0   13    0   13   13    0    0   74    0   39   39   39   39   39    0    0    0    0   17   17   17   17   17   17   17    0    0   17   17    0    0   17    0   75    0    0   55   55    0    0    0   67   67   67   67   67   67    0    0   56   56    0    0    0    0    0    0   76    0    0   77    0    0   59   59   59   59    0    0   69   69   69    0   61    0    0   47
  35   35    0    0    1    0   62   62   62   62   62   62    0   62   62   62    0    0    0   71    0    0   37   37    0    0    0    5    5    0    5    0    0    0    0    0   78    0    0   72    0   73    0    0   53    0    0    0    0    0   79    0    0    0   13    0   74   74   74    0    0   39   39   39   39    0    0    0    0   17   17    0   17    0    0   17   17   17   17   17   17   17   17    0    0   80   80    0   55    0    0    0   67    0   67    0   67   67   67    0    0   56   56   56    0    0    0    0    0   81    0   77   77   77    0    0    0    0    0    0   69   69   69    0    0   82   82    0
  35    0   83    0    0    0    0    0   62   62   62   62   62   62   62   62   62   62    0   71    0    0    0    0    0    5    5    5    5    0    0    0   84   84   84    0    0   72   72   72    0    0   85    0   53    0   86    0    0    0    0   87   87   87    0    0   74    0   74    0    0   39    0   39    0   88    0   89   89    0   17   17    0    0    0    0   17   17   17    0    0   17   17    0   80   80    0    0    0   90   90    0    0    0   67    0    0   67    0    0    0    0    0    0   91    0   92   92    0    0    0    0    0   77   77   77    0   93   93    0    0   69    0   82   82   82   82    0
   0    0    0   94   94    0    0    0    0    0   62    0    0   62   62    0    0    0   71   71    0    0    0   95    0    5    0    0    0    0   96    0   84   84    0   72   72   72    0   72    0    0    0   53   53    0    0    0    0   87   87   87   87    0    0    0    0   39    0    0    0    0   39   39   39    0   97    0    0    0    0   17   17    0   98    0    0    0    0    0    0   17   17   17    0    0   99   99    0    0    0  100    0  101    0  102    0   67   67   67   67   67   67   67    0  103    0   92    0    0   77   77   77   77    0    0    0   93    0    0    0    0   82   82   82   82    0    0
 104    0  105    0    0    0  106  106  106    0    0    0  107    0    0  108  108    0   71   71   71   71   71    0   71    0   84   84    0  109    0   84   84    0  110    0    0    0    0    0    0    0  111    0    0    0    0    0  112    0   87   87   87    0  113    0   39   39    0    0  114    0   39   39   39   39    0   17   17   17   17   17   17    0   98   98    0    0  115    0  116    0   17    0    0   99   99   99   99   99   99    0    0    0    0    0    0    0   67    0    0   67   67   67    0  103    0    0  117    0   77   77   77   77    0   93   93   93    0    0    0  118    0    0   82    0  119    0
 104  104    0  120    0  121    0  106    0    0  122    0    0    0  108  108    0  123    0    0   71   71   71   71   71   71    0   84    0    0    0    0   84   84    0  124    0    0    0    0  111    0  111  111    0    0  125    0    0    0   87   87   87    0    0   39   39    0   39    0  114    0    0    0    0   39   39    0   17   17   17    0    0    0    0   98    0    0  115  115    0    0    0   99   99    0    0    0   99   99   99    0    0  126    0   67   67   67   67   67    0    0   67   67   67    0    0    0  117  117    0   77    0   77    0    0   93    0    0  127    0    0  128    0   82   82    0  129
   0    0  130    0    0  121    0    0  131  131    0    0    0  108  108  108    0  123    0    0    0    0   71   71   71    0    0   84   84   84   84   84   84    0    0  124  124    0    0  111  111  111  111    0    0    0    0    0   87    0   87    0    0   39   39   39   39   39   39   39    0   39   39    0    0   39    0  132    0   17   17   17    0   17    0    0  133    0  115  115  115    0   99   99   99   99   99    0   99   99   99    0    0  126    0   67    0    0   67    0    0    0    0   67   67    0  117  117  117  117    0   77    0   77   77    0   93   93   93    0   77    0  128    0    0    0  134    0
 135  135    0    0  136    0    0  131  131    0    0  137  137    0    0    0    0  123  123  123    0    0   71   71   71    0    0    0    0    0    0   84   84    0    0    0  124  124    0    0  111    0    0  138  138    0   87   87   87   87   87   87    0    0   39    0   39   39    0   39   39   39    0    0   39   39    0    0    0   17    0   17   17   17   17    0  133    0  115  115  115    0    0   99    0    0   99   99   99   99   99    0    0    0  139    0   67   67   67    0  140  140    0    0   67   67    0  117  117    0    0    0    0   77    0    0    0    0    0   77   77    0  128  128    0    0    0    0
 135  135    0    0    0    0    0  131  131  131    0    0  137    0  137  137    0  123    0    0    0    0    0   71   71    0  141  141  141  141    0   84   84   84   84   84    0    0    0  142    0    0  138  138  138    0   87    0   87   87   87   87   87    0    0    0   39    0    0   39    0   39   39   39   39   39    0    0    0    0    0    0   17    0    0    0    0    0  115  115  115    0    0    0    0   99   99    0   99    0   99    0    0    0    0    0   67   67   67   67    0    0  143  143    0    0    0  117  117  117    0  117    0   77   77   77   77   77   77   77   77    0  128    0    0  144  144    0
 135    0    0    0    0    0  145    0    0    0  146    0  137    0    0  137    0  123  123  123  123    0   71   71   71    0    0  141    0    0    0    0    0   84    0    0  142  142  142  142  142  142    0  138  138    0   87   87   87   87   87   87   87    0  147    0   39    0   39   39    0   39   39   39    0    0    0    0    0  148    0    0    0    0    0    0  149  149    0  115  115    0    0  150    0    0   99   99   99   99    0    0    0    0   67   67   67   67    0   67    0    0  143    0    0    0  151    0  117  117    0  117    0    0    0    0    0   77    0   77    0    0  128  128  128    0  144    0
   0    0  152  152    0  153    0  153    0    0    0    0  137    0  137  137    0    0    0    0    0    0    0   71    0    0  141  141  141  141    0  154    0    0  155  155    0    0  142  142    0  142    0  138    0    0   87    0   87    0    0   87    0  147  147    0   39    0    0    0   39   39   39   39   39   39    0    0    0  148  148    0  156  156  156  156    0  149    0    0  115    0  157    0  158    0    0    0   99   99   99    0    0    0   67   67    0    0  159    0    0    0    0    0  160    0  151    0  117  117    0  117    0  117    0  117  117    0  161    0  162  162    0  128    0  163    0    0
   0  152  152  152    0  153  153  153  153  153    0  137  137  137    0  137  137  137  137  137  137  137    0    0    0    0    0    0  141    0  164    0    0    0    0  155  155  155    0    0   87    0  138  138    0   87   87   87   87   87   87    0    0    0  147  147    0   39   39   39   39   39    0   39    0    0  165  165    0  148  148    0    0    0    0  156  156    0    0    0    0    0  157    0  158  158  158  158    0   99    0  166  166    0    0    0  159  159  159    0    0    0    0  160  160    0  151  151    0  117  117  117  117  117  117  117  117  117    0    0  162    0    0  128  128    0  167    0
   0    0    0    0  153  153    0    0  153    0  168    0    0  137  137  137  137  137    0    0    0    0  169  169    0  164  164  164    0  164  164    0    0  170    0    0    0    0    0   87   87   87    0    0   87    0   87    0   87    0    0  147    0    0  147  147    0    0   39   39   39    0   39   39    0    0    0    0  171    0    0  172  172  172  172    0  156    0    0  173  173    0    0    0  158    0    0  158    0    0    0  166  166    0  159  159  159    0  159  159  159  159  159    0    0  151  151  151    0    0    0    0  117  117  117    0  117  117    0    0    0  128  128    0  128  128    0  128
   0    0  174    0    0    0  175    0  153    0  168    0  137  137  137  137    0  137  137  137    0  176    0  169  169    0  164  164  164  164  164    0    0    0  177    0    0    0  178    0   87   87    0    0   87   87   87    0    0    0  147  147  147  147  147  147  147    0   39   39    0   39   39    0  179    0  180    0  171    0  172  172    0  172    0    0    0    0    0    0    0    0  181    0    0    0  158  158  158    0    0    0    0    0  159    0    0  159  159    0  159  159    0    0    0  151    0  151    0  182  182    0    0    0  117  117  117    0    0    0    0  128  128    0  128    0  128  128
 183    0  174    0    0  175  175    0    0  184    0    0    0  137  137  137    0  137  137  137  137    0  185    0  169  169    0  164  164  164    0    0  186    0    0    0    0   87    0   87    0   87    0   87   87   87   87   87    0  187    0  147  147    0    0  147    0  188    0   39    0   39   39    0  179    0  180    0    0    0  172    0  189    0    0  190  190    0    0    0    0    0    0    0  158  158    0    0  158  158    0  191    0  159  159    0    0  159    0  159  159    0  192    0    0  151    0  151    0    0    0    0  193  193    0    0    0  193  193    0  193    0  128  128  128  128  128    0
   0  194    0  195  195    0  175    0    0  184  184    0  196    0  137    0  197    0  137  137    0  185  185  185    0  169  169    0  164    0  198    0  186    0  199    0    0   87   87   87   87   87   87    0   87   87   87    0    0    0  200    0  147  147  147    0    0    0  201    0  202    0   39   39    0    0    0    0    0  203    0  189  189    0    0    0  190  190    0    0    0    0  204    0  158  158  158  158  158    0    0    0  205    0  159    0    0    0    0  159    0    0    0    0  206    0    0    0  193    0  193  193  193  193    0  193  193  193  193  193  193  193    0    0  128    0    0  207
 194  194    0  195    0    0    0    0  184  184  184    0  196    0  137    0  197    0    0    0  185  185  185    0    0    0  169  169    0    0    0  208    0  199  199  199  199    0    0    0   87   87   87   87   87    0    0  209    0    0    0    0    0    0    0  210  210    0  201    0    0   39   39   39    0  211  211  211    0    0  189  189    0  212    0  213    0    0    0    0  204  204  204    0  158  158    0    0  158    0  205  205  205  205    0    0    0    0    0  159    0    0  214  214    0  214    0    0  193  193  193  193    0    0    0  193  193  193    0    0  193    0    0  215    0    0    0  207
   0  194    0  195    0    0    0  216    0    0  184  184    0  137  137  137    0  185  185  185  185    0    0  217    0    0  169  169  169  169    0    0  199  199    0    0    0    0   87   87   87   87   87   87   87   87    0    0  218    0  219  219    0  219  219    0    0    0    0  211    0    0   39   39   39    0  211  211    0    0  189    0  189    0    0    0    0  220    0  204  204  204    0  221    0    0    0  222    0    0  205  205  205    0  205  205  205  205    0    0  223  223    0  214  214  214  214  214    0  193    0  193    0  193    0  193  193    0  193  193    0    0    0    0    0  207  207  207
 194  194    0    0  224    0    0    0    0    0    0    0    0  137    0    0    0    0  185    0  185  185  185    0  225    0  169    0  169    0    0    0  199    0    0  226    0    0    0   87   87   87   87   87    0    0    0   87    0  219  219  219  219  219    0    0    0    0    0  211  211    0    0   39    0    0  211  211    0  189  189  189  189  189    0    0  220  220    0  204  204    0  227    0  228    0  222  222    0  205  205  205  205  205  205  205    0    0    0    0  223    0    0  214  214    0  214  214    0  193    0  193    0  193  193  193  193  193    0  193  193    0  229    0    0    0    0    0
 194    0    0    0  224    0    0    0  230    0  137  137  137  137    0  185  185  185  185  185  185  185  185  185    0  169  169    0    0  231  231    0    0  226  226  226    0  232    0    0    0    0   87   87    0    0    0   87   87    0  219  219  219    0  233    0  211    0  211  211    0  211    0    0  211  211  211  211    0  189    0    0  189    0    0    0  220  220  220    0    0  234    0    0  228    0    0  222  222    0  205  205  205  205    0    0    0    0  235    0    0  236    0    0    0  237    0  214  214    0    0  193  193  193    0  193  193  193  193  193  193  193    0    0  238    0  239    0
   0  240  240    0    0    0    0    0    0  137  137  137    0    0  241    0    0    0    0  185    0  185  185    0  242    0    0    0  231  231    0    0  226  226    0    0  243    0    0  244  244    0   87   87   87   87   87   87   87    0  219    0  219    0    0    0  211  211    0  211  211  211  211  211    0  211    0    0  189  189    0  245    0  246    0  247    0    0    0    0  248    0    0    0    0    0    0    0    0    0  205    0  205    0    0    0  249    0    0    0    0    0    0    0  250    0  251    0    0  252    0    0  193    0  253    0  193  193  193  193  193    0  254  254    0  239  239  239
 240  240  240    0  255  255    0  256    0  137    0  137    0    0  241    0    0  257  257    0  185  185  185  185    0    0    0    0  231  231    0  226  226  226  226    0    0    0    0  244    0  244    0   87    0   87    0    0   87   87    0    0    0  258    0  211  211    0    0    0    0    0    0  211  211  211    0    0    0    0    0  245    0    0    0    0    0    0  259    0  248    0  248  248  248  248  248    0    0  260    0    0  205  205    0    0    0  261    0    0  262  262    0    0    0  251  251    0    0  252    0  193  193    0    0  263    0    0    0  193  193    0  254    0    0  239    0  239
 240    0    0    0    0    0    0    0  137  137  137  137  137    0  241    0    0  257    0    0    0  185    0  185  185    0  231  231    0  231    0    0  226  226  226  226    0  244  244  244  244  244    0   87   87    0    0    0   87    0    0  264  264    0  211  211  211  211  211    0  265  265    0  211  211  211    0  211    0  266  266    0    0  267    0  259  259  259  259    0  248  248  248  248  248    0    0  268  268    0  269    0    0    0    0    0    0    0  270    0    0  262    0  271  271    0    0    0    0    0    0    0  193    0    0    0    0  272  272    0    0    0  254    0    0    0    0    0
   0    0  273  273  273    0    0    0    0    0    0    0    0  274    0  275    0    0    0  276  276    0    0    0  185    0  231  231  231  231    0  226  226    0  226  226    0  244    0    0    0  244    0    0    0    0  277  277    0  278    0  264  264    0    0    0    0    0  211    0    0    0    0  211    0  211  211  211    0    0    0    0  267  267    0  259  259  259    0    0    0  248    0    0    0    0  279    0    0  269  269  269    0    0    0    0    0    0  270    0    0    0  280    0    0  281    0    0  282  282    0    0  193    0  283  283    0    0    0  284    0  284    0  284    0  285  285  285
   0  286    0  273    0  287    0  288    0    0    0    0    0    0  289    0  289    0    0    0    0    0    0    0    0    0    0  231    0    0    0  226  226  226    0    0    0    0  290    0  291    0  291  291  291    0  277  277    0    0  264  264    0    0    0    0    0  211  211  211    0    0  211  211    0    0    0  211    0  292    0    0  267    0  259  259    0    0    0  293  293    0    0  279  279  279  279  279    0  269    0  269  269    0  294    0    0    0    0  295  295  295    0    0  281  281  281    0    0    0  193  193  193    0    0  283    0  296    0  284  284  284  284  284    0  285  285    0
 286  286    0    0  287  287    0    0    0    0    0    0  289  289  289  289  289    0    0  297  297    0    0    0    0  231  231  231  231  231    0    0  226  226    0  298    0    0    0    0  291  291  291  291  291    0    0    0  264  264  264  264  264  264  264    0    0    0  211  211  211  211  211    0  299    0  211  211  211    0  300  300    0    0  259  259  259    0    0  293    0    0    0  279    0  279  279  279    0  269    0  269    0  301    0    0  302    0    0    0  295    0    0  295    0  281  281  281    0  193  193  193    0    0    0    0  303    0  284  284  284  284  284  284  284    0  285  285
   0  286  286  286    0    0  304    0  305    0  306  306    0  289    0    0  289    0    0    0    0    0    0  307    0    0  231  231    0    0    0  308    0  226  226    0    0  309    0  291  291  291    0    0    0    0    0  264  264  264    0  264  264    0  264  264    0    0    0  211  211    0  211    0    0  310    0    0  211  211    0    0    0  311    0    0    0  311  311    0  312    0    0  279  279  279    0  279  279    0  301    0    0  301  301  301    0  301  301    0  295    0  295  295  295    0    0    0    0  193    0    0    0    0  303  303  303  303    0  284  284  284  284  284    0    0    0  285
 286  286    0  286    0  313    0    0    0  306  306    0    0    0    0    0    0  314    0    0  315  315    0    0    0    0  231    0    0  308  308  308    0  226    0    0    0    0    0    0  291    0  316    0  317    0    0  264    0    0    0  264  264  264    0  264  264    0  211  211    0    0  211    0  318    0    0  211  211    0  319    0  311  311  311  311    0  311    0  311    0    0  279  279  279  279  279  279  279    0  301  301  301  301    0  301  301  301    0  295  295  295  295    0  295  295  295    0    0  193    0  320    0    0    0  303  303  303  303    0    0  284    0  284    0    0    0  285
   0    0    0  286  286    0  321    0    0  306  306  306    0  322    0  323    0  314  314    0  315    0  324  324  324    0    0    0  325    0    0  308  308    0    0  308    0    0  326  326    0  327    0  328    0  329    0  264  264    0  264  264    0    0  330    0  264  264    0    0  331    0  211  211    0    0  211    0    0  311    0  311  311    0    0  311  311  311  311  311  311    0    0  279    0  279    0    0  279    0  301    0    0  301  301    0    0  301    0  295    0  295    0  295  295  295  295    0  332    0  333    0    0  334  334    0    0  303  303    0    0  284  284    0    0    0  285  285
   0  286    0  286    0    0    0  306    0  306  306    0    0  322  322    0  335    0    0    0    0  336    0  324  324    0    0    0    0    0  337    0  308    0    0  308    0    0    0    0    0    0  328  328    0  329    0    0    0  338    0  264  264    0  330  330    0    0    0  331  331    0    0  211  211    0  211  211    0  311  311  311  311    0    0  311    0  311    0  311  311  311  311    0  279  279  279  279    0    0  301  301  301    0  301    0    0    0  295  295    0  295  295  295    0  295    0    0    0    0  333  333    0  334    0  339  339    0    0    0    0    0    0    0  340  340    0  285
   0  286  286  286    0  306  306  306  306  306    0  322  322  322    0  341    0  322  322    0    0  336    0  324    0  342  342    0    0  337  337    0  308  308  308  308    0    0  343  343  343  343    0    0  344    0  345    0    0    0    0    0  264    0  330  330  330    0    0  331    0    0  211  211  211  211  211    0    0  311  311  311  311    0    0  311    0    0  311    0    0    0  311    0    0    0  279    0  279    0    0  301    0    0    0    0    0  295  295    0    0    0    0  295    0  295  295    0  346    0  333  333    0    0    0    0  339    0    0    0  347  347    0    0  340  340    0  285
   0    0    0    0    0  306    0  306  306    0  322  322    0    0  348    0    0  322    0  322    0  336  336    0  342    0  342    0    0  337  337    0    0  308    0    0  349    0    0    0  343  343    0  344  344  344    0    0    0  264  264  264  264  264    0  330    0    0    0    0  350    0  211  211  211    0  211  211  211    0    0  311    0  351    0    0  311  311  311  311  311    0  311  311    0  279  279  279  279    0  301  301    0    0    0    0    0  295  295  295    0  352  352    0  295  295  295    0    0    0    0  333  333    0    0    0    0    0    0  353    0  347    0    0    0    0  354    0
   0    0    0    0    0  306    0  306    0  355    0  322  322    0  348    0  322  322  322  322    0    0    0    0  342  342  342  342  342    0    0  308  308  308    0  349  349    0    0  343  343    0  356    0    0    0  357  357    0  264  264  264    0    0    0    0  358  358    0    0  350    0    0  211  211  211  211    0    0    0    0    0  351  351    0  311  311    0  311    0  311  311  311    0  359    0    0    0  279    0  301    0  360  360    0    0  361    0    0  295    0  352    0  362    0  295    0    0    0    0  363    0    0    0  363  363    0  363    0    0    0    0    0    0  364    0    0    0
   0    0  365  365    0  306  306    0    0    0  366    0  322    0    0    0  322    0    0  322    0  322    0    0  342  342  342  342    0    0  367    0    0    0  349  349  349  349    0    0    0    0  356    0  357  357  357  357    0  264    0  264  264    0    0  358  358    0    0  368    0    0  369    0  211    0  211  211    0  351  351  351  351    0    0  311  311  311    0  311  311  311  311    0    0  370    0    0  279  279    0    0    0    0    0    0  361    0    0  295    0    0    0    0    0    0  363  363    0    0  363  363  363  363    0  363  363  363  363  363  363  363    0  371    0    0  372    0
 365  365  365  365    0    0    0    0  373    0    0  322  322    0  374  374    0  322  322  322  322  322    0  342  342  342  342    0  349  349    0    0    0    0    0  349    0  349  349    0    0    0    0    0  357  357    0  357    0  264    0  264    0    0    0    0    0  375    0    0    0  375    0    0    0    0  211    0  351  351    0    0    0  376    0    0    0    0  311  311    0    0    0  377    0    0    0  279  279    0    0    0    0    0    0  279    0    0    0  295    0    0    0    0  378    0  363    0  363  363  363  363  363  363    0  363    0    0  363    0    0  363  363    0    0  372  372  372
 365    0  365  365  365    0    0    0    0    0  322    0  322  322    0    0    0    0  322  322  322    0  379    0  342  342    0  349  349  349  349  349  349    0  349    0  349  349  349  349    0    0    0  357  357    0    0  357    0    0  264  264    0    0  375    0  375  375  375  375  375  375  375  375  375    0    0    0  351    0    0  380  380    0    0  311  311  311  311  311  311  311    0    0    0  381  381    0  279  279  279  279  279  279  279  279    0    0  279    0  382    0    0  383    0  363  363    0  363    0    0  363  363    0  363  363  363  363    0    0  363  363    0  384  384    0    0  372
   0    0    0  365    0    0  322  322  322  322  322  322  322  322    0    0  322  322  322  322    0    0  379    0  342    0  385    0    0  349    0    0  349  349  349  349  349    0    0  349  349  349  349    0    0    0  386    0  264  264  264    0  375  375  375  375  375  375    0    0    0  375  375    0  375    0  387    0    0    0    0  380    0  380    0  311  311    0    0    0  311  311    0    0  381  381    0    0  279    0    0  279  279    0    0  279  279  279  279    0  382  382    0    0  388    0  363  363  363    0    0  363  363    0  363  363    0    0  363  363  363  363    0    0    0    0    0  372
   0  365    0  365    0    0  322    0    0  322  322    0    0  322  322  322  322  322  322    0  389    0    0    0  342    0  385  385    0  349  349    0  349    0  349    0    0    0  349  349  349  349  349    0    0  390    0  391    0  264    0    0    0    0  375    0  375  375    0  392  392    0  375  375  375    0  387  387    0  380  380  380  380  380    0  311  311  311    0    0    0  311    0    0    0    0  393    0  279    0  279  279  279  279  279  279    0  279    0    0  382    0  394  394    0    0  363    0    0  395    0    0  363  363  363    0  363    0    0  363  363    0  396    0    0  397    0    0
 365  365  365  365    0    0  322    0    0    0    0    0  322  322  322    0    0    0    0  389  389  389    0    0  342    0  385    0  398    0    0  399    0    0    0  400  400  400    0    0    0  349    0    0  401    0    0  391    0    0    0  402    0    0  375  375    0    0    0    0  392    0    0    0  375  375    0  387    0  380  380  380    0    0  311  311  311    0    0  403    0  311  311    0    0    0  393    0    0  279  279  279  279    0    0    0    0  279    0  404    0  394  394    0  405    0    0    0    0    0  363  363  363  363  363    0  363  363  363  363  363  363    0    0  406    0    0  407
 365  365    0  365  365    0  322    0  322  322  322    0  322    0    0  408    0  322  322    0  389    0  409    0  342    0    0  398  398  398    0  399    0  400  400  400    0    0    0  410  410    0  411    0  401    0    0    0    0    0    0    0    0    0  375    0    0    0    0  412    0  413    0  375  375  375  375    0    0    0  380    0  414    0  311    0    0    0  415    0    0    0    0    0  416    0    0  417    0  279  279  279  279  279  279    0  418    0    0    0    0    0  394  394    0    0  419    0  420  420    0  363  363    0  363    0    0    0    0  363    0    0  421  421    0    0  422    0
   0    0    0  365    0  322    0  322  322  322  322  322  322  322    0    0    0    0  322  322    0    0    0  342  342    0  423    0  398    0    0  399  399    0  400    0    0  424  424    0    0  425    0    0  401    0  426  426    0  427  427  427    0    0    0  412  412    0    0  412  412    0  375    0  375  375    0    0    0    0  380    0    0  428    0    0    0  415  415    0    0    0  416  416  416  416    0  417  417    0  279    0    0  279  279    0  418  418    0    0  394  394  394  394    0    0    0  429    0    0    0  363    0    0    0  430    0  363  363  363  363    0  421    0    0    0    0  431
   0  432    0    0  322  322  322  322    0    0    0  322  322  322  322    0    0  322  322    0  433    0  342  342    0    0    0    0    0  434    0  399  399    0  400    0  424  424  424  424    0    0    0    0    0    0    0    0    0    0  427    0    0  412  412    0  412  412    0  412  412    0  375  375  375    0  380  380  380  380  380  380  380    0    0  435    0  415  415  415  415    0  416    0  416  416    0    0    0    0  279    0  436    0  279    0    0    0  394  394  394    0    0  394    0  394    0    0  437    0  438    0  439  439    0  430  430    0    0  363    0  421  421    0  440    0    0  431
   0    0  441    0    0  322  322  322  322  322    0    0    0  322  322  322  322  322    0  442    0  443    0  342  342    0    0  444    0    0  445    0  399  399    0  399    0  424  424    0  446  446    0  446  446    0  447  447    0    0    0  412  412  412    0  412  412  412  412  412    0  375  375    0  375    0    0  380    0  380    0  380  380  380  380    0  448    0    0    0    0  448    0  416  416  416  416  416  416  416    0    0  436    0  279  279    0    0    0  394    0  449    0  394  394  394    0    0    0  450    0  450    0  439  439    0  430  430    0    0    0    0    0  451    0  452    0    0
 453    0  441    0  453    0    0  322  322  322    0    0    0    0  322    0  322  322    0    0  443  443  443    0    0  454    0    0    0    0    0    0  399    0  399  399  399    0    0    0    0  446    0  446  446  446    0    0  412  412  412  412    0  412  412  412  412  412  412  412    0    0    0    0  375    0    0  380    0    0  380  380  380  380    0    0  448  448    0    0    0  448    0    0    0    0  416    0  416  416  416    0    0    0  279    0  394  394  394  394  394    0  455    0    0  394  394    0    0  450  450  450    0  439    0  456    0  430  430  430    0    0  451  451    0    0  457  457
 453  453    0  453  453    0  458    0  322  322    0    0    0  459    0  460    0    0    0  443  443  443    0  461  461    0  462    0  463    0  399  399  399  399  399  399  399    0  464    0    0  446  446  446  446    0    0    0  412    0  412    0    0    0  412    0  412    0  412  412    0    0  465    0    0  466    0  380  380    0  380  380    0  380    0    0  448    0    0    0    0  448  448  448    0  467    0  416  416  416    0  468    0    0    0  469    0  394  394  394    0  470    0    0  471    0    0    0  472    0  450    0  439  439    0  456  456    0  430    0  473    0  451    0  474    0    0    0
 453    0    0    0  453  453    0    0  322    0    0  475  475    0    0  460    0    0  443    0  443    0  476    0    0    0  462    0  463  463    0    0    0    0  399    0  399    0  464    0    0  446    0    0    0    0    0  412  412  412  412    0  477  477    0  477    0    0    0    0    0    0  465  465    0    0    0    0    0  478    0  380  380    0  479    0  448  448  448    0  448  448  448  448    0    0    0  416    0  416  416    0    0  480    0    0    0    0  394  394    0    0  481    0    0  481    0  482    0    0  450    0  439    0    0    0  456  456    0  483    0  484    0    0    0  485    0  486
 453  453  453  453    0  453  453  453    0  475  475  475  475    0  487    0  488    0  443  443  443    0    0    0    0  489    0    0    0  463  463    0  490    0  399    0  399    0    0  491  491    0  492    0    0    0    0  412    0  412    0  477    0  477  477  477  477  477  477    0    0  493    0  465    0  494    0  478  478  478    0  380  380    0  479    0  448  448  448  448  448  448    0    0  495    0  496    0    0  416  416    0    0    0    0    0  497  497    0  394    0    0  481  481  481  481    0    0  498  498    0  439  439  439    0  456  456    0    0  483    0  484    0  499    0  485  485    0
 453  453  453  453  453    0  453    0  453    0    0    0    0  500    0  488  488    0    0    0  443    0    0    0  443    0  443  443    0    0  463    0  490    0    0  399  399  399    0  491    0    0  492    0  501    0    0  412  412    0  477  477  477  477    0    0    0  477    0    0    0    0  465  465    0  494    0  478  478  478    0  380    0  502    0    0    0    0    0    0  448    0  503    0    0    0    0  504    0    0    0    0    0    0    0  497  497  497  497    0  505    0    0    0  481    0    0  498  498    0    0  439  439  439    0    0  456    0  506    0    0    0    0    0  507    0    0    0
 453    0    0  453  453  453  453    0  453    0  508  508    0  500    0    0  488  488  488    0  443  443  443  443  443    0    0  443    0  509    0    0    0    0    0  399  399  399    0    0    0  492  492  492    0  510    0  412    0    0    0    0    0    0    0  477  477  477    0  511    0  465    0  465    0  494    0  478  478    0  512    0    0  502  502    0  502    0  502  502    0    0    0  513    0  514    0    0  515    0  516    0    0    0  517    0  497    0    0  505  505    0  518    0  481    0  519    0    0  520    0  439    0  439    0  521    0  506  506  506    0    0    0    0    0    0  522  522
 453    0    0    0    0  453  453    0  453    0  508    0    0  500    0  523    0    0    0    0  443  443    0    0  443  443    0  443    0    0  524    0  525    0  399  399  399    0    0    0    0  492  492    0  510  510    0  412    0    0  526  526  526    0    0  477    0  477    0  511    0  465  465  465    0    0  478  478    0  512  512  512    0    0  502  502  502    0  502    0    0  527    0  513    0    0  515  515  515  515    0    0    0  528    0    0    0    0    0  505  505  505    0  481  481  481    0  529  529    0  439  439  439  439  439    0    0    0    0    0  530  530  530  530  530    0  522    0
   0    0    0  453  453  453  453  453  453    0    0  531    0  500    0    0  532    0  533    0    0  443    0    0    0  443  443  443    0    0    0  443    0    0    0  399    0    0  534  534    0    0    0  510  510  510    0  412    0  526    0  526  526    0    0  477  477    0    0    0  535    0    0    0  536    0    0    0    0    0    0  512  512    0  502    0  502    0  502  502  502    0    0    0    0  537    0  515  515  515    0  538    0  528    0  539  539    0    0    0  505    0  540    0  481    0  529  529    0  541    0    0    0    0  439    0    0  530  530    0  530  530  530    0    0    0  522  522
 542    0    0  453    0    0    0    0    0  543  543    0    0    0  532  532  532    0    0    0    0    0    0  544  544    0  443    0  443    0  443  443  443  443    0  399    0    0    0    0    0    0    0  510    0  510    0  412    0  526    0  526  526    0    0    0  477    0    0  545    0    0    0    0    0    0    0    0  546    0  512  512    0    0  502    0  502  502    0    0  502  502    0    0    0    0    0  515    0    0    0    0    0    0  539  539    0    0  547  547    0    0    0  481  481    0  529  529    0    0  548  548    0    0    0    0    0    0  530  530  530    0  530  530    0    0    0    0
 542    0  549    0    0  550  550    0  551    0  543  543  543    0    0    0    0  552    0    0  553  553    0    0    0    0  443  443  443    0    0    0    0  443    0    0    0    0    0    0    0    0    0    0    0    0    0    0  526  526  526  526  526    0    0  554    0  545  545  545  545  545    0  555    0  556  556    0    0    0  512    0  557    0  502  502  502  502  502  502  502  502  502    0  558    0  559    0    0  560    0  561    0  562    0    0    0    0  547  547    0  563    0    0    0    0    0  529  529    0  548  548    0    0  564    0  564    0  530    0  530  530    0    0  565    0    0    0
   0  566    0  567  567    0    0    0  551    0  543  543  543    0  568    0    0    0  569  569    0  553    0  570  570  570    0    0  443  443  443  443  443  443    0  443  443    0    0  571    0  572  572    0    0  526  526    0  526    0    0    0    0  573  573    0  574    0  545    0  545  545  545    0  575    0  556    0    0  576    0  557  557    0  502  502  502    0  502    0  502    0    0    0  558    0  559  559  559    0  561  561    0  562  562  562    0    0    0    0  563  563  563    0    0  577    0    0    0    0  548    0  578    0  564  564  564    0    0    0    0  530    0  565  565    0    0    0
 579    0  580    0    0  551  551  551  551  551    0    0    0    0  568  568  568  568    0    0    0    0    0  570  570    0    0  443  443  443  443    0    0  443  443  443  443  443  443    0    0    0  572    0    0  526    0    0  526    0    0    0    0  573    0    0  574  574    0    0    0    0  545  545    0  556  556  556    0    0    0    0    0    0  502    0  502  502    0    0  502    0    0    0    0    0    0  559    0    0  561    0  581    0  562    0  582  582  582    0  563    0    0    0    0    0  548    0  548  548  548    0    0  548    0    0    0  583    0    0    0  530    0  565    0    0  584  584
 579    0    0  585    0    0  551    0    0    0    0  586    0  587    0    0    0  568  568    0    0  588    0  570  570  570    0    0    0  443  443    0  443    0  443    0    0  443  443    0  589    0    0  590    0  526  526  526  526  526    0    0    0    0    0  574  574  574    0  591  591    0  545    0  592    0  556    0  593    0  593  593    0    0    0  502  502    0    0  594    0  595  595    0    0    0  596    0  597    0    0  598    0  599    0    0  582  582    0    0    0  600    0  548  548  548  548  548  548  548  548  548  548  548  548    0    0    0    0  601  601    0    0  565    0    0    0    0
 579    0    0  585    0    0  551    0    0  602    0    0  603    0  604  604    0  568    0  605    0  588  588    0  570  570    0  606    0  443  443  443  443  443  443    0    0    0    0  607    0    0    0  590  590    0  526  526  526    0  526  526    0  526  526    0    0    0    0    0  591    0  545    0  592  592    0    0  593  593  593  593    0    0    0  502    0  608    0  594    0  595    0  609  609  609    0  597  597  597  597    0    0  599  599    0    0    0    0  610    0  600  600    0    0  548    0    0    0  548  548    0    0  548    0    0  548    0  548    0    0  611  611    0    0  611    0  612
   0    0    0  585    0    0    0  613    0    0    0  603  603  603    0    0  568  568    0  605    0    0    0  570  570    0    0    0  614    0    0    0    0  443    0  615    0    0  616    0    0  617    0    0    0    0  526  526  526    0    0  526    0  526    0  618    0  619    0  591  591  591    0    0  592    0    0    0    0  593    0  593  593    0  502  502    0    0  620    0  595  595    0  609    0    0    0    0    0  597    0  621    0    0  599  599    0    0  622    0    0    0  600  600    0  548    0  623  623    0  548    0    0  548  548  548  548  548  548  548    0    0  611  611  611  611  611    0
 624    0  585  585    0    0    0    0  625  625    0  603    0  603  603    0  568    0  570    0  570  570  570  570  570    0    0  614  614  614  614  614    0    0  626    0    0  627    0    0  617  617  617  617    0    0  526    0  526    0  526  526  526  526    0  618    0    0  618    0    0    0  628  628    0  629    0  593  593  593    0    0  593  593    0  502    0    0    0  609    0    0  609  609    0  621  621  621  621    0  621  621  621    0    0  599    0  622  622    0  630    0  600  600    0    0  631    0    0    0  548    0    0  548  548    0  548  548  548  548    0    0  611  611  611    0  611  611
   0    0  585    0  632    0    0  633    0    0    0  603  603    0    0    0    0  570  570  570  570    0  570    0  570  570    0  614  614  614  614  614    0    0  626    0    0    0    0  634    0  617    0  617    0  635    0    0  526  526  526  526  526    0    0  618  618  618  618  618    0  628  628  628    0    0    0  593  593    0  593  593  593  593  593    0  636  636    0  609  609  609  609    0  609    0  621    0  621  621  621    0  621    0  637    0  622  622    0  630  630  630    0    0    0  630    0  548    0    0    0  548    0    0    0  548  548  548    0    0  638    0    0    0  611    0    0    0
   0  585  585    0    0  639  639    0  640    0    0    0  603    0  641    0    0  570    0  570    0  570  570  570    0  570  570    0    0  614  614  614    0    0    0  642    0  643    0  634    0    0    0  617    0    0  644  644    0    0  526    0  526  526    0    0    0  618  618    0    0    0    0  628  628    0    0  593    0  593    0  593    0    0    0    0    0  636    0    0    0  609  609  609  609  609    0    0  621  621  621  621    0  645    0  646    0    0  647    0  630  630  630  630  630  630    0  548    0  548    0  548  548  548    0  548  548    0  648    0  638    0  649    0  611  611  611  611
 585  585    0    0    0    0  639    0  640    0  641  641    0  641  641  641  641    0  650    0    0  570  570  570    0    0    0    0    0    0  614  614    0    0  642  642    0    0  651    0  652  652    0    0    0  653    0  644    0  526  526  526  526    0    0  654    0    0  618  618    0    0    0  628    0  593  593  593    0  593  593  593  593    0  655  655  655    0  609  609  609  609  609  609    0    0    0    0    0  621  621    0  656    0  657    0    0  656    0  630  630  630    0  630  630    0    0  548  548  548  548    0    0  548  548  548  548  548    0    0  638    0    0    0    0  611  611  611
 585    0    0  585    0  639  639    0    0  658    0  641  641    0  641  641    0    0    0    0  570  570    0  570  570    0    0  659    0    0    0  614    0  660    0  642  642    0    0  652    0  652  652    0  661    0  662    0    0  526    0  526  526    0    0  654    0    0    0    0  663  663    0    0  664    0    0    0  665    0  593  593  593    0    0    0    0    0  609  609  609  609    0  609  609  609  609  609    0    0    0  656  656  656    0  656  656  656    0  630  630    0  666    0  630    0  548  548  548    0    0    0  548  548  548  548  548    0    0  667    0  611  611    0    0  611  611    0
 585    0    0  585    0  639    0    0    0    0    0  641    0  641  641  641    0    0  668  668    0  570  570    0  570    0    0    0    0  614  614  614    0    0    0    0    0    0  652  652  652  652  652  652    0    0    0    0    0    0  526  526  526    0  654  654    0    0  669    0    0  663  663    0    0    0    0    0    0  670    0    0  593  593  593  593  593    0    0  609  609  609    0    0  609  609  609  609    0  671    0  656    0  656  656  656  656    0    0    0    0  656    0    0  630    0  548    0    0  548  548  548  548  548  548    0    0  672    0    0    0  611  611  611  611  611  611    0
 585  585  585  585    0    0  673    0  641  641  641  641  641  641    0  641    0    0  668    0  570  570    0  570  570  570    0    0    0  614  614  614  614  614    0    0    0  652  652  652  652    0  652  652    0  652  652  652    0    0    0    0    0  674    0    0    0  675    0  676  676    0    0  677    0  678  678  678    0    0    0    0  593  593    0  593    0  679  679    0  609  609  609  609  609    0    0  609    0    0  680    0  656  656  656    0  656  656  656  656    0  656  656    0  630    0  548  548    0  548  548  548    0    0    0  672  672  672    0  611  611  611  611    0    0  611    0  681
 585  585    0    0    0    0    0  682    0    0    0    0    0    0  641  641  641  641    0  570  570  570    0    0  570  570    0    0  614  614  614    0  614    0    0  683  683    0  652  652    0  652  652  652    0  652  652    0    0  684    0  674  674  674    0  685  685    0    0    0    0    0    0    0    0  678    0  678  678  678    0    0  593    0    0    0    0  679  679    0  609    0    0    0  609  609    0    0  686  686    0    0  656  656    0  656  656  656    0  656  656  656    0    0  630    0  548  548  548  548  548    0    0  687    0  672  672    0  688    0    0  611    0    0    0    0  681  681
 585    0    0    0  689    0    0    0  690    0    0    0  691  691    0    0    0    0    0    0    0  570    0    0  570    0    0  692    0    0    0  693    0  683  683  683    0    0    0    0  694    0    0  652  652  652    0  674  674    0    0  674  674    0    0    0    0    0  695    0    0    0  696    0    0    0    0  678    0    0    0  697    0  698    0    0  699    0    0    0    0    0  700    0  609    0    0    0    0  686    0  701    0    0    0  656    0  656  656  656  656  656    0    0    0    0    0    0  548    0  548    0  687  687  687    0    0  702    0  703    0  611  611  611    0  704    0  681
 585  585    0  705    0    0  706    0    0    0  707  707    0  691    0    0  708    0    0  709    0    0    0  570  570  570    0    0  710  710    0    0    0    0    0  683  683    0  711    0    0    0    0  652    0    0    0    0  674  674  674    0  674  674  674  674  674    0  695  695    0    0  696    0    0  712    0    0    0  713    0    0    0    0  699  699  699  699  699    0  699    0  700    0    0    0  686  686    0  686    0    0  714    0  656  656  656    0    0    0    0    0    0    0  715  715  715  715    0    0    0  716    0  687    0    0  702  702    0    0    0  611    0    0    0    0  681  681
   0  585    0  705  705    0    0    0    0    0    0    0  717    0  708  708  708  708  708    0    0  718  718    0  570    0  719    0  710    0    0    0  720    0  683  683    0    0  711    0  711    0  721    0  674  674  674  674  674  674  674  674  674    0    0    0    0    0  695  695  695  695    0  722    0  712    0  723  723    0  723  723  723  723    0    0  699    0  699  699  699  699    0  686  686  686    0  686  686  686  686    0    0  656  656    0    0    0  724  724  724    0  725    0  715    0  715  715    0    0  726    0    0  687  687  687    0    0    0    0  727    0    0  728    0  681  681    0
   0  585    0  705    0  729  729    0    0  730  730    0    0  731    0    0  708  708    0    0    0  718    0  732    0    0    0  733    0    0    0  734    0  683  683    0    0    0  711  711  711    0    0  735    0  674  674  674    0    0    0    0    0    0    0    0  736  736    0    0  695    0    0    0  723    0    0    0  723    0  723    0  723  723    0  737    0  738    0    0    0  699    0    0    0  686  686  686    0    0  686    0    0  656    0    0  739  739    0  724  724    0  725    0  715  715    0    0    0    0    0    0  687  687    0  687    0    0  740    0    0    0  741    0  681  681  681  681
 585  585    0  705    0    0  729  729    0    0  730    0    0  731    0  708  708  708  708    0    0  718    0  732    0    0    0    0    0  734  734  734    0  683  683    0    0  742    0    0    0    0  674    0  743    0  674    0  744    0    0    0  745    0  736  736  736  736  736    0    0  746    0    0  723    0    0  723  723  723  723  723    0  723  723    0  747    0  748  748  748    0    0  748    0    0  686    0    0    0    0  749  749    0  739  739  739    0    0  724    0    0  725  725    0  715  715  715  715    0    0    0  687  687    0    0  750  750    0    0    0  741  741    0  681  681  681  681
 585    0    0  705    0    0    0    0  730  730  730  730  730    0  751    0    0  708  708    0  718  718    0    0  752    0  753    0    0    0  734  734    0    0  683  683    0    0    0  754    0  674  674  674    0  674  674  674    0  755    0    0  745    0    0    0    0    0  736    0  746  746  746    0  723    0    0  723    0    0    0    0  756    0    0    0  747  747    0    0  748  748  748  748    0    0  686    0    0    0  749  749  749  749    0    0    0  757    0    0  758  758    0    0    0  715  715    0    0    0  759    0    0  687  687    0    0  750  750  750    0    0    0  681  681  681  681    0
   0    0  705  705    0    0    0  760    0    0  730    0  730  730    0    0    0    0    0  718  718  718  718  718    0    0    0    0  761    0  734  734  734  734    0  683  683  683  683    0  674  674    0    0    0  674    0    0  762    0    0  745  745  745    0  736  736  736  736    0  746    0    0  723  723  723  723  723    0    0    0  763    0  764  764  764    0  747  747    0    0  748  748  748    0    0  686    0  686  686    0  749  749    0    0  765  765    0  758  758  758    0  766  766  766    0    0    0    0    0    0  767  767    0    0  750  750  750  750    0  768  768  768    0  681  681  681  681
   0    0    0    0    0  760  760  760  760    0  730    0    0  730    0  769    0  770    0  718    0  718  718    0    0    0    0    0    0    0    0  734    0  734    0    0    0  683    0  674  674  674  674  674    0  674    0  771    0    0    0  745    0    0    0  736  736  736  736    0  746    0  723  723    0  723  723  723    0  772  772    0    0  764    0    0  747  747  747  747    0  748  748    0  686  686  686  686  686  686  686    0    0  765  765  765  765    0    0  758    0    0  766  766    0  773    0  774    0  767  767  767  767  767    0  750  750  750    0  775    0    0    0  776    0  681  681  681
 777  777    0  760    0  760    0  760  760    0    0  778    0    0    0  769  769    0  779    0  718  718    0    0    0  780    0    0  780    0  734  734    0  734    0    0  781    0    0    0    0  674  674    0  674  674  674    0    0    0  745  745    0  782  782    0  736    0  736    0    0  723  723  723    0  723  723    0    0    0  772  772    0    0  783  783    0  747  747  747  747    0    0    0    0  686    0    0    0  686    0  784    0    0  765  765    0    0    0    0  785    0  766  766  766    0    0  774    0  767    0  767  767    0    0  750    0    0  786    0  787    0    0  776  776    0  681  681
   0    0    0  760  760  760    0  760    0    0  778  778  778    0  788    0    0    0    0    0    0    0    0    0  780  780  780  780  780    0    0    0    0  734    0    0  781    0    0    0  674  674  674  674  674    0  674    0    0    0    0  745    0    0  782  782    0  782    0    0    0  723  723  723  723  723    0  789    0    0  772  772  772    0  783    0    0  747    0  747    0    0    0  790    0    0    0  686  686  686  686    0    0    0  765    0    0  791    0    0    0    0  766  766    0    0  792    0  793    0    0  767  767  767    0  750  750  750    0    0    0    0    0    0  776    0  681    0
   0    0    0    0    0    0  760  760  760    0  778  778    0    0    0  794  794  794  794    0  795  795    0  780  780  780    0  780    0    0    0  780    0  734  734    0    0  796  796    0    0  674    0  674  674    0  674    0  797  797    0  745    0    0    0  782  782  782  782    0  798    0    0  723    0  723  723    0  772  772  772    0    0  783  783    0    0    0    0  747  747  747    0  790    0    0    0    0  686  686  686  686  686    0  765    0  765    0    0  799  799    0    0    0  800    0  792    0  793  793    0    0  767    0  750  750    0  750  750    0    0    0  801    0  776  776    0  802
   0    0    0  803  803    0  760    0  760    0    0  778    0    0    0    0  794  794    0  804    0    0    0  780    0    0    0  780  780  780  780  780    0  734    0  796  796  796    0    0  674  674    0  674  674    0    0    0  797    0    0    0    0    0    0  782  782    0  782    0  798  798    0    0    0    0    0  805    0    0  772    0  772    0    0    0    0    0    0  747  747    0  806    0    0    0    0    0    0  686  686    0    0    0  765    0  765  765    0  799  799    0  807    0    0  792  792    0  793    0  808    0    0  750    0  750  750    0    0    0    0  809    0  810    0  776    0    0
 803  803    0  803  803    0  760    0    0  778  778  778  778  778    0    0    0  794    0  804    0  811    0  780  780    0    0    0  780    0    0    0    0    0    0    0  796  796  796  796    0  674    0    0    0  812  812  812    0    0    0    0  782  782  782    0    0  782  782    0  798  798    0    0    0  813    0    0    0  772  772  772  772    0  814    0    0    0    0  747    0  815    0    0  686  686  686  686  686  686    0    0    0  765  765  765  765  765    0    0    0    0  807    0    0    0    0    0  793    0    0    0  750  750    0  750  750  750    0  816    0    0  817    0  816    0    0    0
   0  803  803  803  803    0  760  760  760    0    0    0  778    0    0    0    0  794    0  804  804    0  780  780    0    0  818    0    0    0  818  818    0    0  819    0  796    0    0    0  674  674    0  820  820    0    0    0  821    0  821    0  782  782    0  782  782  782    0  798  798    0    0    0    0    0    0    0  772  772    0  772    0  822    0    0  823  823    0    0    0    0    0  823    0    0  686    0    0  686    0    0  765  765  765  765    0  765  765    0    0  824    0  825    0    0  793  793  793    0    0    0  750    0    0  750    0    0    0  816  816  816    0  816  816  816  816    0
 803  803  803    0    0    0  760  760    0    0    0    0    0    0  826    0    0    0  804  804    0    0    0  780    0  818  818  818  818  818  818  818  818    0    0  827    0  674  674  674  674    0  828    0    0  821    0    0  821    0  821    0    0  782  782  782  782    0  829    0    0    0    0  830  830  830    0  831    0    0    0    0    0    0    0    0    0  823  823  823    0    0  823  823  823  823    0  823    0    0    0    0    0  765  765    0  765  765  765    0    0  824    0  825  825    0    0  793    0  832  832    0  750    0  750  750    0    0  816  816  816    0  816  816    0  816  816    0
   0    0  803  803    0  760  760  760    0    0    0    0  833  833    0    0  760    0    0  804  804    0  780  780  780    0    0  818    0    0    0    0    0    0    0    0  674  674  674  674    0  834    0  821    0  821  821  821  821  821  821    0    0    0    0    0    0    0  829  829    0    0    0  830    0  830    0    0  835  835    0    0    0  823  823  823  823  823  823  823  823  823  823    0    0    0  823  823  823  823  823  823    0    0  765  765    0  765    0  824  824  824    0    0  825  825    0    0    0    0    0  750  750  750  750    0    0    0  816  816  816  816  816    0    0  816    0    0
 836    0    0    0  760  760    0  760    0    0  760    0  833  833    0    0  760    0    0  804    0  780  780  780    0  837  837    0  838  838    0    0    0    0    0  674    0  674    0  674    0  834    0  821  821  821  821    0    0  821    0    0  839  839    0    0    0  840    0  829  829    0    0    0  841    0  842    0    0  835    0    0    0    0    0    0    0  823  823  823  823    0  823    0    0  823  823    0    0    0    0  823  823    0    0    0  843    0    0    0  824    0  844    0    0  825  825    0  845    0    0    0  750  750    0  750    0  816  816    0    0    0  816    0  816  816    0    0
 836  836    0  846    0  760  760    0    0    0  760  760    0    0  760  760  760  760    0    0    0    0    0  780  780    0    0  847    0  838  838    0  848    0  674  674  674  674    0    0    0  834  834    0    0    0  821  821  821    0  839  839  839  839    0  849  849    0  829  829    0  850    0    0  841    0    0  851  851    0    0    0    0  851    0    0  823  823  823    0    0    0  823    0    0  823    0  823  823  823  823    0  823  823  823    0  843    0  852    0  824  824    0  824  824    0    0  853    0    0  854    0  750  750  750  750  750    0    0  855  855    0  816  816  816  816  816  816
   0  836    0    0    0  760  760    0    0  760    0  760    0  760  760  760    0  760    0    0    0    0  780  780    0    0    0    0    0    0  838  838    0  856    0    0    0    0  857    0    0  834  834    0  834  834    0    0  821    0    0    0    0  839    0    0  849  849    0  829  829    0    0    0  841    0  851  851  851  851    0    0  851  851  851    0    0  823    0    0    0  823  823  823  823  823    0  823    0    0    0    0  823    0  823  823    0    0  852    0  824  824  824  824  824    0  858    0    0    0    0  750  750  750    0  750  750    0  859    0    0  860    0  816  816    0    0  816
 861    0  862    0    0  760    0  760  760  760    0  760    0  760  760    0  760  760    0  863    0  780  780  780  780    0  864  864  864  864    0  838    0  856    0    0  865    0    0    0    0  834  834  834  834  834  834    0  821    0  821    0    0    0  866    0    0  849    0    0    0    0    0  867    0    0  851    0  851  851    0    0  851  851  851    0  851    0    0  868    0    0  823    0    0  823  823  823    0    0  823  823    0    0    0    0  869    0  852    0    0    0    0  824    0  858  858  858    0  750  750  750  750    0    0  750    0  859  859  859    0  860    0  816  816  816  816  816
 861    0  862  862    0  760  760  760  760  760    0  760  760  760  760  760    0  760    0  863  863    0    0    0  780    0    0    0  864  864  864    0    0    0    0  870    0  871  871    0  834  834  834    0    0    0    0    0  821  821  821    0    0    0    0    0  872    0  873  873    0    0  874    0  851    0  851    0    0    0  851  851  851    0  851  851  851    0    0  868  868    0  823  823    0  823    0  823  823  823  823  823  823  823  823    0    0  875    0  876  876    0    0  824    0  858    0    0  750  750    0  750    0  750    0    0    0    0  859    0    0    0    0  816  816  816    0  816
   0  862  862  862  862    0    0    0  760  760  760  760    0  760    0  760  760  760  760    0    0    0    0  780  780    0    0  864  864  864  864  864    0  877    0  870    0    0    0    0  834    0  834    0    0    0  878    0  821    0  821  821  821    0  879    0  872    0  873    0  880  880    0  851  851  851  851    0  851  851  851    0    0    0  851    0  851  851  851    0    0  881    0    0  823  823  823    0    0  823    0  823    0  823  823    0    0    0  876    0  876    0    0    0  882    0  750    0  750    0    0  750  750  750  750    0    0  859  859    0  883    0  884    0  816    0    0  816
   0  862  862  862    0    0    0    0  760    0    0  760    0  760  760    0  760    0    0    0    0    0  885    0  780    0  864  864  864  864  864  864    0  877    0    0    0    0    0  834  834  834  834    0    0    0  878  878    0    0  821  821  821  821    0    0    0  886    0  880  880    0  851  851  851    0  851  851  851    0  851    0  887    0  851    0  851    0    0    0    0    0  888  888    0    0  823  823    0  823    0    0  889    0    0    0  876  876  876  876  876  876    0  890    0  750  750  750  750  750  750    0  750  750  750    0    0  859    0  891    0    0    0  892    0    0    0  816
 893    0    0    0    0    0  894    0  760    0  760  760    0    0  760  760    0  760    0    0  760    0    0    0    0  895    0    0    0  864    0    0    0  877    0    0  896  896    0    0  834    0    0    0  897    0    0    0    0    0  821    0  821  821    0  898    0  886  886    0  880    0    0    0    0    0  851    0    0    0    0  899    0  851  851  851  851    0  900  900  900    0  888  888    0    0    0    0    0    0    0    0    0    0  876  876  876  876  876    0    0    0    0  890    0  750  750    0  750    0  750    0  750  750    0    0  750    0  901    0    0    0    0  892    0  892    0    0
   0    0  902    0  903    0    0    0    0  760  760  760  760    0    0  760  760  760  760  760  760  760    0  760    0  895  895    0  864  864  864    0    0  877  877    0  896  896    0    0    0    0    0    0  897  897  897    0    0  904    0    0  821    0    0    0    0  886    0    0  880  880  880    0  905    0  851    0    0  899  899  899  899    0  851    0  851    0    0    0    0    0    0  888    0  906    0    0  907    0    0    0  908  908    0    0    0  876    0  909    0    0  910    0    0  750  750    0    0    0    0  750  750    0  750  750  750  750    0  911  911    0  892  892  892  892  892  892
 912    0  902    0    0  913    0  760  760  760    0  760  760  760    0  760    0  760  760    0  760  760  760  760    0    0  895    0  864  864    0    0  914    0    0  896  896  896    0    0  915  915  915    0  897  897    0    0    0  904  904    0    0  880  880  880  880    0    0  880  880    0    0    0  905    0    0  899  899  899    0  899  899    0  851  851    0    0    0    0  888  888  888  888    0    0  907  907  907    0    0    0  908    0  916    0    0  876  876    0    0  910  910    0  917    0    0  917  917    0    0  750    0  750    0    0  750    0    0    0    0  918    0  892    0  892  892  892
 912    0  902  902  902    0    0    0    0  760  760    0  760  760    0    0  760  760    0  919    0  760    0    0    0  920    0  921    0  864  864    0    0    0    0    0    0    0  915  915  915    0    0  897  897  897    0    0    0    0  904  904    0    0  880  880  880    0  922    0  880    0    0  905  905    0  923    0    0  899    0    0    0  851  851  851  851  851    0  888  888    0    0  888  888  888    0    0  907    0    0    0  908    0  916  916    0    0  876  876    0    0    0    0  917    0  917  917  917  917    0  750  750  750  750  750  750  750    0    0  918  918  918    0  892  892    0    0
   0    0  902  902    0    0  760  760  760  760    0  924    0    0    0    0  760    0  925    0    0    0    0    0    0    0    0  921    0    0  864    0    0    0  926  926  926    0  915    0    0    0    0  897  897  897    0  927    0  904  904  904  904  904    0  880    0    0    0    0  880  880  880    0  905  905    0  928    0    0  929  929    0  851  851  851    0  851    0    0  888    0  851    0  888    0    0    0    0    0    0    0    0    0  916  916  916    0    0    0    0  930    0  917  917  917  917  917  917    0    0    0    0    0  750  750    0  750    0  931    0  918    0    0    0    0    0  932
   0  902  902  902  902    0    0    0  760  760    0  924  924  924    0    0    0  925  925  925  925  925  925  925  925  925    0  921  921    0    0    0    0    0  926  926    0    0  915    0    0  933  933    0    0    0    0  927    0    0    0  904    0    0  880  880  880  880  880  880  880    0  880  880    0  905    0  928  928    0  929    0  851  851    0  851    0  851    0    0    0  851  851    0    0  851  851    0  934  934    0    0    0    0  916  916  916  916    0    0  935    0    0    0    0    0    0  917    0  936    0  937    0    0  750  750  750    0    0  931    0  918  918  918    0  932  932  932
   0  902  902    0  902    0    0    0    0    0  924  924    0  924    0  938    0  925    0    0  925    0  925  925    0    0  925    0    0  939  939  939    0  940    0    0  941    0    0    0    0  933    0  942  942    0  927  927    0  943    0    0    0    0    0    0  880    0  880  880  880  880    0  880    0    0    0    0  928    0    0  851  851  851    0    0  851  851  851    0  851  851    0    0    0  851  851  851    0    0  944  944    0    0    0    0  916  916    0  935  935  935  935    0    0    0  917  917    0  936  936    0    0  945    0    0  750  750    0    0    0  918    0    0  946    0  932  932
   0    0    0    0    0    0    0    0  947    0    0  924    0    0    0    0  948    0    0  949    0    0  925  925    0  925  925  925    0    0  939  939    0    0    0    0    0    0    0  950  950    0  951    0  942    0  927  927    0    0  952    0    0  953    0  880  880  880  880    0  880  880    0  880  880    0    0  928  928  928  928    0  851    0    0    0  851  851    0  851    0  851  851    0  851    0  851  851  851  851    0    0    0    0    0    0    0    0    0    0  935    0    0    0  954    0  917    0  955    0    0  956    0  945    0    0    0  750  750    0    0  918    0    0  946  946    0  932
   0  957  957  957    0  958  958    0    0    0    0    0  959    0    0    0  948    0  960    0    0    0  925  925  925  925  925  925  925  925    0    0    0  961  961  961  961    0    0  950  950    0  951    0    0  962    0    0  963    0    0    0    0    0    0  880    0    0  880    0  880    0  880  880    0  964  964    0    0    0    0  965    0    0  966  966    0  851  851  851    0  851  851  851  851  851  851  851  851  851    0    0    0    0  967  967    0    0  968  968    0    0    0  969    0    0    0    0    0  970    0  956  956    0    0    0    0    0    0    0    0    0    0    0  946    0    0    0
 957  957    0    0    0  958  958  958    0    0    0    0    0  971  971    0  948    0  960  960    0    0  925    0    0    0    0  925  925  925    0  961    0    0    0  961    0  961  961    0    0    0    0    0  972    0    0  973    0  974    0    0  975    0    0  880    0    0    0    0  880  880    0  880  880    0    0    0    0  976    0    0  977    0  966    0    0  851    0  851  851  851    0  851    0  851  851  851    0    0  978    0  967  967  967    0  979    0  968  968    0    0    0    0  980    0  981  981    0    0  982    0    0  982  982    0  983  983  983  983  983    0    0    0    0    0    0    0
 957  957    0    0    0    0  958    0  958  958  958    0  984    0    0  948  948    0    0    0  985    0    0  986    0    0  987    0  925  925    0  961  961  961  961  961  961  961  961    0    0  972    0    0  972    0  988    0    0    0  989    0  975  975    0  880  880    0    0    0    0  880    0    0  880  880    0    0  976  976  976    0  977    0    0    0  990    0    0  851    0  851    0  851    0    0  851    0  851    0    0    0  967  967    0  991    0    0    0    0  992    0    0  980  980  980    0  981  981    0  982  982  982  982  982  982    0  983    0    0    0    0  993    0  993  993    0    0
   0    0  958  958  958  958  958  958  958    0  958    0    0    0  948  948  948    0  994    0    0    0  986  986    0    0    0  995    0    0  961  961  961    0  961  961  961    0    0  972  972  972  972  972  972    0    0    0    0  989  989  989    0    0    0    0  880    0  996    0    0    0  997  997    0  880  880    0  976  976    0    0  977    0    0  990  990    0    0  851  851    0  851  851    0  851  851  851  851  851  851    0  967    0    0    0  998  998  998  998    0  999  999    0  980    0    0    0    0    0  982    0  982    0    0  982  982    0    0    0  993  993  993  993  993    0    0    0
   0  958  958    0    0    0    0    0    0    0  958    0  948  948  948    0    0 1000    0 1001    0    0    0    0    0    0 1002    0 1002 1002    0  961    0  961  961    0    0 1003 1003    0  972  972    0  972  972    0    0    0 1004    0  989  989  989    0    0    0  880  880    0    0    0    0  997  997    0  880  880    0  976    0    0    0    0    0    0    0    0    0  851  851    0    0    0    0    0  851  851    0  851    0  851  851    0    0 1005 1005    0    0  998    0    0  999    0 1006    0    0    0    0    0    0    0 1007    0    0    0    0    0 1008    0    0    0    0    0    0  993    0    0    0
   0    0    0    0 1009    0    0 1010    0  958  958    0  948  948  948  948    0    0  948    0 1002 1002 1002    0 1002 1002 1002 1002 1002    0 1011    0 1012    0  961    0    0 1003    0    0  972  972  972    0    0 1013    0    0    0    0    0  989    0  989    0  880  880    0    0    0    0    0  997  997  997    0    0 1014    0 1015 1015    0 1016    0 1017    0    0  851  851  851    0    0    0  851  851  851  851    0    0 1018    0    0 1019    0 1005    0  998    0  998    0    0  999    0    0 1020 1020    0 1021 1021    0    0    0 1022 1022 1022    0 1023    0    0 1024 1024    0    0 1025    0 1026    0    0
1027    0    0    0 1009    0 1028    0 1029    0    0    0    0  948    0  948    0  948  948  948    0    0 1002 1002 1002 1002 1002    0    0 1012    0 1012 1012    0    0    0    0    0 1030 1030    0  972  972  972  972    0 1031    0    0 1032    0  989  989  989    0  880  880    0    0 1033 1033 1033    0  997    0 1034 1034    0 1034    0 1015 1015    0 1035    0  851  851  851  851    0 1036    0    0  851  851    0    0 1018 1018 1018    0    0    0 1037    0    0  998    0  998  998    0    0 1020    0 1020    0 1021 1021    0 1038    0    0    0    0    0 1023 1023    0 1024 1024 1024 1024    0 1025    0 1026    0 1039
   0 1040 1040    0    0    0    0 1041    0    0    0    0    0  948  948    0  948  948  948  948  948  948    0    0 1002    0    0 1042    0 1012 1012 1012 1012    0    0    0 1030 1030 1030 1030 1030    0    0    0    0 1031 1031    0    0 1032    0    0    0  989    0  880  880    0    0 1033 1033    0    0  997  997    0 1034    0 1034    0    0    0 1043    0  851  851    0    0  851  851    0    0    0  851  851  851    0 1018    0    0 1044    0    0    0  998  998  998  998  998    0 1020    0 1020 1020 1020    0 1021 1021 1021    0    0    0 1045    0 1046    0 1023 1023    0    0    0    0    0    0    0    0 1039 1039
1040 1040    0 1041    0 1041 1041 1041    0    0    0    0    0  948  948  948  948    0    0  948    0  948    0    0    0    0    0 1042    0    0    0 1012    0 1047    0 1030 1030    0 1030    0 1030 1030 1030    0    0    0    0    0    0 1032 1032 1032    0  989    0  880  880  880    0    0 1033 1033    0  997  997    0 1034 1034 1034 1034    0    0    0  851  851    0 1048 1048    0  851  851    0  851  851  851  851  851    0 1044 1044 1044 1044 1044 1044    0    0  998    0    0 1020 1020 1020 1020    0 1020    0 1021    0 1021 1021 1021 1021    0 1049    0 1050    0 1023 1023 1023 1023    0 1051    0    0    0 1039    0
1040    0    0 1041 1041 1041    0    0    0  948  948    0  948  948    0    0  948  948  948  948    0    0    0    0 1042 1042 1042 1042 1042 1042    0    0    0    0 1052    0 1030    0    0    0    0    0 1030    0 1030    0 1032 1032 1032 1032    0    0    0  989    0    0  880  880  880  880    0    0 1053    0    0    0 1034    0    0 1034 1034    0 1054    0    0    0 1048    0    0  851    0    0    0    0    0  851    0 1044 1044 1044    0 1044    0 1044 1044    0    0 1055    0 1020    0 1020 1020 1020    0    0    0    0 1021 1021 1021 1021 1021    0    0    0 1056    0    0    0    0 1051 1051    0    0 1051    0 1057
1040    0    0    0 1041    0    0 1058    0    0  948  948  948    0    0    0  948  948    0    0    0 1059    0    0    0    0    0    0 1042    0 1060    0    0    0    0    0 1030 1030 1030 1030    0    0 1030    0 1030    0    0 1032 1032 1032 1032    0    0    0 1061    0    0  880    0  880    0    0    0  880  880    0 1034    0 1034 1034    0 1054 1054    0    0    0    0    0  851  851    0 1062    0    0    0  851    0 1044    0    0 1063    0 1064    0 1044    0    0    0 1065    0 1020 1020    0 1020 1020    0    0    0 1021    0    0 1021    0    0 1021 1021    0    0    0 1066    0    0 1051 1051 1051 1051 1051    0
1040    0    0    0 1041    0 1058 1058 1058    0  948  948  948  948    0    0    0    0 1067    0 1059 1059 1059    0 1059    0 1068    0 1042 1042    0 1069 1069 1069 1069    0    0    0 1030 1030    0 1030    0 1030 1030 1030    0 1032 1032    0    0 1070    0    0    0 1070    0  880    0  880  880  880  880    0  880  880    0 1034 1034 1034    0    0 1054 1054 1054 1054 1054    0  851    0 1071    0    0 1072 1072    0 1044 1044    0    0 1063 1063    0    0    0    0    0    0    0 1020 1020    0    0    0    0    0 1073    0    0 1074    0 1021 1021 1021 1021 1021    0    0    0    0 1075    0    0    0    0 1051    0 1076
   0    0 1077    0    0 1058 1058 1058 1058 1058    0    0    0  948    0    0    0 1078    0 1059 1059 1059 1059 1059 1059    0    0    0    0 1042    0    0 1069    0    0    0    0 1030 1030 1030 1030 1030    0    0 1030 1030 1030    0    0 1079    0 1070 1070 1070 1070 1070    0    0 1080    0  880    0  880    0  880  880    0    0 1034    0 1081    0    0    0    0 1054 1054    0  851    0    0 1082 1082    0    0 1082    0    0    0 1083    0    0 1083    0 1084 1084    0 1085    0 1020 1020 1020    0    0    0    0    0 1086    0    0    0 1021    0 1021 1021    0 1087 1087    0 1075 1075 1075    0 1088 1088    0 1076 1076
1077 1077 1077 1077 1077    0 1058    0    0    0 1089    0    0  948    0 1090    0    0    0    0    0 1059 1059 1059    0 1091    0    0 1092    0 1030 1030    0    0 1030 1030 1030 1030    0    0 1030 1030    0 1030 1030 1030    0 1070 1070    0    0 1070    0    0    0 1070    0 1093    0 1094    0  880  880    0  880    0 1095    0    0 1081 1081    0 1096 1096    0 1054 1054 1054    0 1082 1082 1082    0 1082    0 1082 1082 1082    0 1083 1083 1083 1083 1083    0 1084    0 1085    0    0 1020    0 1097 1097 1097    0 1098    0 1099 1099 1099    0 1087    0    0 1087 1087 1087    0    0    0    0    0 1088 1088 1088    0 1076
   0    0 1077 1077 1077    0    0    0 1089 1089 1089    0 1089    0    0    0 1100 1100    0    0 1059 1059    0    0    0    0    0    0    0 1030 1030 1030 1030    0    0 1030    0    0 1030 1030 1030 1030 1030 1030    0    0    0    0 1070 1070    0 1070 1070    0    0    0 1101    0    0 1094    0  880  880  880  880  880    0 1102    0    0    0    0 1096    0    0 1054    0 1054 1054    0    0 1082    0 1082    0 1082 1082    0 1083 1083 1083    0    0 1083 1083    0 1085 1085 1085    0 1020 1020    0    0    0 1098 1098 1098    0 1099    0    0 1087 1087    0    0 1087 1087 1087 1087 1087    0    0 1088    0 1088 1088    0
1103    0    0    0 1077    0    0    0 1089 1089 1089 1089 1089 1089 1089    0    0    0    0 1059 1059 1059    0    0 1104 1104    0 1030 1030 1030 1030 1030 1030 1030 1030 1030    0    0    0    0    0    0 1030 1030    0    0 1105    0    0 1070    0    0 1070    0 1106    0    0 1107    0    0    0    0  880  880  880    0 1102 1102    0    0 1108    0    0 1054 1054 1054    0 1054 1054    0 1082 1082 1082 1082 1082 1082    0    0    0 1083    0 1109 1109    0 1083    0    0 1085    0    0 1020 1020 1020 1020 1020    0    0    0    0    0 1110    0    0 1087    0    0 1087 1087 1087    0 1087    0    0 1088 1088 1088 1088 1088
   0    0 1077 1077 1077 1077 1077 1077    0    0    0    0 1089 1089    0    0 1111    0    0    0 1059 1059    0 1104 1104    0    0 1030    0 1030 1030    0    0    0    0    0    0    0 1112 1112    0 1030 1030 1030    0 1113    0    0 1070 1070    0    0 1070    0    0    0 1114    0    0    0 1115    0    0    0    0 1116    0    0    0    0 1108 1108    0 1054    0 1054 1054    0    0 1082 1082 1082    0    0    0 1082 1082 1082 1082    0 1109 1109    0    0 1083    0    0 1085    0    0    0    0 1020 1020    0 1117 1117 1117 1117    0    0    0    0 1087 1087 1087 1087 1087 1087    0    0    0 1088 1088    0 1088    0 1088
1118 1118    0    0 1077 1077    0 1077 1077 1077    0    0    0    0    0 1111 1111 1111 1111 1111    0 1059 1059    0    0 1030 1030 1030 1030    0 1030    0 1030 1030    0 1119 1119    0    0 1112    0    0 1030 1030 1030    0    0 1070 1070    0    0    0 1070    0 1120    0    0 1121    0 1115 1115    0 1122 1122    0    0    0 1108 1108 1108 1108    0    0 1054    0    0 1054    0 1082 1082    0 1082 1082    0    0 1082 1082    0 1082 1082    0 1109 1109    0 1083    0 1085 1085    0 1123    0    0 1020    0    0    0 1117    0    0 1087    0 1087    0 1087    0    0 1087 1087    0    0 1088 1088 1088    0    0    0 1088 1088
   0    0 1124    0    0 1077    0 1077    0    0 1125 1125    0    0    0    0    0    0 1111 1111 1111    0    0    0 1030 1030    0    0    0 1030 1030 1030 1030 1030    0 1119 1119    0    0 1112    0    0 1030 1030    0 1070 1070 1070 1070 1070    0 1070 1070    0 1120 1120    0 1121 1121    0    0 1122 1122    0 1126 1126 1126    0    0 1108    0 1127 1127    0    0    0    0 1082 1082    0    0 1082 1082 1082    0    0 1082 1082    0    0    0    0 1109 1109    0    0 1085    0 1085    0    0 1020 1020    0 1128    0    0 1087 1087 1087 1087 1087 1087 1087 1087 1087    0 1087 1087    0    0 1088 1088    0 1129    0 1088    0
1130 1130    0 1130 1130    0    0    0 1131    0 1125    0    0 1132    0    0 1111    0    0    0 1111 1111 1111    0 1030 1030 1030    0 1133    0    0 1030 1030    0 1119    0 1119    0    0    0    0    0 1030    0 1070 1070 1070 1070 1070 1070 1070 1070    0 1134    0 1120    0 1121 1121 1121 1121    0 1122 1122    0 1126    0    0    0    0 1135    0 1127    0    0    0    0 1082    0    0 1082    0 1082    0    0    0 1082    0    0 1109 1109 1109 1109    0    0 1085 1085 1085 1085    0 1020 1020    0    0    0 1136    0 1087 1087    0    0    0    0 1087 1087    0    0    0    0 1088 1088 1088    0 1129 1129    0 1088    0
1130 1130 1130 1130    0    0 1131 1131 1131    0    0    0    0 1132    0    0 1111 1111 1111 1111 1111 1111    0    0 1030    0 1030 1030    0 1030 1030 1030 1030    0 1119 1119 1119 1119    0    0    0    0 1030    0 1070 1070    0    0    0    0 1070 1070    0    0    0    0    0    0    0 1121    0    0    0 1122    0 1126 1126    0    0 1126    0    0    0 1137 1137 1137    0    0    0    0 1082 1082 1082 1082    0    0 1082    0 1109 1109    0 1109    0    0    0 1085    0 1085    0 1020 1020 1020    0    0 1136 1136 1136    0    0    0 1138    0    0    0    0    0 1139 1139 1139    0    0    0    0    0 1129    0 1088    0
1130 1130 1130    0    0    0 1131 1131    0 1140    0    0 1132 1132    0 1111 1111    0 1111    0 1111    0 1111    0 1030    0    0    0 1141    0    0 1030 1030 1030    0    0 1119    0 1142    0    0 1143    0 1144    0 1070 1070    0 1144 1144    0    0    0 1145 1145 1145    0    0 1146    0    0    0 1147    0 1148    0 1126 1126 1126 1126 1126    0 1149    0 1137    0 1149 1149    0    0    0 1082    0 1082    0 1082 1082    0    0    0 1109 1109    0 1085 1085 1085    0    0 1150    0    0    0 1136 1136 1136    0 1136    0 1151    0    0    0    0 1152    0 1139 1139    0    0    0    0 1153    0 1139    0 1154    0    0
1130    0    0 1155    0 1156    0 1131 1131    0    0 1157    0 1132    0 1111 1111 1111    0    0 1111 1111 1111    0    0 1030 1030    0    0 1030 1030 1030 1030 1030 1030    0    0 1158    0 1143 1143 1143    0 1144    0    0    0 1144 1144    0    0    0    0    0    0    0 1159    0    0    0 1160    0    0    0    0    0 1126 1126 1126 1126 1126    0 1149    0    0    0 1149 1149    0    0    0 1082 1082    0 1161    0 1082    0    0    0    0    0    0    0 1085    0    0 1162    0    0    0    0 1136 1136    0 1163    0 1164    0 1165 1165    0    0 1152    0    0 1139 1139 1139 1139    0    0    0 1139    0 1154    0 1166
   0    0 1167    0 1156 1156 1156    0 1131    0    0 1157 1157    0    0 1111 1111    0 1111 1111 1111 1111    0    0 1168    0 1030 1030    0 1030 1030    0    0 1030    0 1030    0    0    0 1143    0 1143    0 1144    0 1169    0 1144    0    0    0    0 1170    0    0 1159 1159 1159    0    0 1160    0 1171    0 1172    0 1126    0    0    0 1126    0 1149 1149 1149 1149 1149    0 1173 1173 1173    0 1082 1082    0    0    0 1174    0 1175    0    0    0 1176    0    0 1177    0 1178 1178    0 1136 1136 1136    0    0 1179    0 1165 1165 1165 1165    0    0    0 1139 1139 1139    0 1139    0 1139    0 1139    0    0 1166 1166
   0    0    0    0    0    0    0    0 1131    0    0    0 1157 1157    0 1111 1111    0    0 1111    0 1111 1111 1111    0    0    0 1030 1030 1030 1030    0    0 1030 1030 1030 1030 1030    0    0 1143 1143    0 1144    0    0 1144 1144    0 1144 1144    0    0 1180    0 1159 1159    0 1181 1181    0 1182    0 1172 1172 1172    0 1183 1183    0    0 1149    0    0 1149    0 1149 1149    0    0    0    0    0    0 1149 1149 1149    0    0    0    0    0    0    0 1184 1184    0    0 1178    0 1185    0 1136    0 1186 1186    0    0    0    0 1165    0 1187    0    0 1139 1139 1139    0 1139 1139 1139 1139 1139    0 1166 1166    0
1188    0    0    0 1189    0    0 1190    0    0 1191    0 1157 1157 1157    0 1111 1111 1111    0    0 1111 1111 1111    0    0 1030 1030    0 1030    0    0 1030    0 1030 1030 1030 1030    0    0 1143 1143    0 1144 1144 1144 1144    0    0 1144 1144 1144 1144    0 1192    0 1159    0    0    0    0 1182 1182    0 1172    0    0 1183 1183    0 1149 1149 1149 1149 1149    0 1149 1149 1149 1149 1149 1149    0    0 1149 1149 1149    0 1193 1193    0    0 1194    0    0    0 1195    0    0 1196    0 1197    0    0    0 1186    0    0 1198 1198    0    0    0    0 1139 1139 1139    0    0    0    0 1139 1139 1139 1139    0    0    0
   0 1199 1199 1199    0 1200    0    0    0 1201    0 1157 1157    0    0 1202    0 1111 1111    0 1111 1111 1111    0    0    0 1030 1030 1030    0    0    0 1030 1030 1030 1030    0    0 1203 1203    0    0 1204    0    0    0 1144 1144 1144 1144 1144    0    0 1205    0 1159 1159 1159    0    0 1206    0    0    0    0    0    0 1183    0 1207    0 1149 1149    0    0    0 1149 1149    0 1149 1149 1149 1149 1149 1149    0 1149    0 1193 1193 1193    0 1194    0    0 1208    0 1209 1209    0    0 1197 1197    0    0    0 1210    0    0    0    0    0 1139 1139 1139    0 1139 1139    0 1211 1211    0 1139    0    0 1212 1212    0